%YAML 1.1
%TAG !u! tag:unity3d.com,2011:
--- !u!114 &11400000
MonoBehaviour:
  m_ObjectHideFlags: 0
  m_CorrespondingSourceObject: {fileID: 0}
  m_PrefabInternal: {fileID: 0}
  m_GameObject: {fileID: 0}
  m_Enabled: 1
  m_EditorHideFlags: 0
  m_Script: {fileID: 11500000, guid: eb2ae1cbadbc96a4786eb740194f1996, type: 3}
  m_Name: challenge_6
  m_EditorClassIdentifier: 
  _challengeName: 
  _challenge_ID: 2
  _challengeScore: 
  _currentChallengeState: 0
