%YAML 1.1
%TAG !u! tag:unity3d.com,2011:
--- !u!114 &11400000
MonoBehaviour:
  m_ObjectHideFlags: 0
  m_CorrespondingSourceObject: {fileID: 0}
  m_PrefabInternal: {fileID: 0}
  m_GameObject: {fileID: 0}
  m_Enabled: 1
  m_EditorHideFlags: 0
  m_Script: {fileID: 11500000, guid: 8d766bfdfa3013e4fa7e486fe0477fa5, type: 3}
  m_Name: RacketP3
  m_EditorClassIdentifier: 
  EntityName: racket
  Properties:
  - {fileID: 11400000, guid: a908d4debadb81643b35d463643f1d27, type: 2}
